{
  "count": 72,
  "next": "https://dropcommerce-app.herokuapp.com/embedded/orders/?has_plan=True&page=2",
  "previous": null,
  "page": 1,
  "per_page": 9,
  "results": [
    {
      "id": 44664,
      "name": "DC-10044664",
      "type": "SAMPLE",
      "status": "paid",
      "new_name": "DROPCOM-44664",
      "created_at": "2024-12-16 19:30:50.144135+00:00",
      "shipping_address": {
        "id": 2761,
        "type": "SHIPPING",
        "first_name": "Gerard",
        "last_name": "da Silva",
        "phone": null,
        "city": "Curitiba",
        "zip": "81860-400",
        "province_code": "AZ",
        "country": "US",
        "company": "",
        "is_store_address": false,
        "store": 77201,
        "order": null,
        "address": "34 Rua Carlota Volp"
      },
      "suppliers": [
        {
          "id": 3723,
          "name": "Powered by People",
          "quantity": 1,
          "logo": "https://res.cloudinary.com/dropcommerce/image/upload/v1723051743/misu5spdanshs7r6lqkk.jpg",
          "status": "paid",
          "subtotal": "44.7999999999999971578290569595992565155029296875",
          "shipping": "12.00",
          "total": "56.79999999999999715782905696",
          "errors": ["One or more items in this order are out of stock"],
          "can_be_paid": true,
          "can_be_canceled": false
        }
      ],
      "total": "56.79999999999999715782905696"
    },
    {
      "id": 44573,
      "name": "DC-10044573",
      "type": "SAMPLE",
      "status": "unpaid",
      "new_name": "DROPCOM-44573",
      "created_at": "2024-12-05 22:57:40.683108+00:00",
      "shipping_address": {
        "id": 2392,
        "country_code": "CA",
        "type": "SHIPPING",
        "first_name": "Isabella",
        "last_name": "2Guo",
        "phone": null,
        "city": "Victoria",
        "zip": "V8X 5J2",
        "province_code": "BC",
        "country": "CA",
        "company": "",
        "is_store_address": false,
        "store": 77201,
        "order": null,
        "address": "1-4440 Chatterton Way (Re/Max Camoson)"
      },
      "suppliers": [
        {
          "id": 161,
          "name": "Northwest Apparel",
          "quantity": 5,
          "logo": "https://res.cloudinary.com/dropcommerce/image/upload/v1729207391/wni4tl9owcsxj8ujoe8w.jpg",
          "status": "unpaid",
          "subtotal": "140",
          "shipping": "1.51",
          "total": "141.51",
          "errors": [],
          "can_be_paid": true,
          "can_be_canceled": true
        }
      ],
      "total": "141.51"
    },
    {
      "id": 44557,
      "name": "DC-10044557",
      "type": "SAMPLE",
      "status": "unpaid",
      "new_name": "DROPCOM-44557",
      "created_at": "2024-12-03 18:01:44.372636+00:00",
      "supplier_orders": [],
      "shipping_address": {
        "id": 2759,
        "country_code": "BR",
        "type": "SHIPPING",
        "first_name": "Guilherme2",
        "last_name": "da Silva",
        "phone": null,
        "city": "Curitiba",
        "zip": "81860-400",
        "province_code": "",
        "country": "BR",
        "company": "",
        "is_store_address": false,
        "store": 77201,
        "order": null,
        "address": "34 Rua Carlota Volp"
      },
      "suppliers": [
        {
          "id": 161,
          "name": "Northwest Apparel",
          "quantity": 3,
          "logo": "https://res.cloudinary.com/dropcommerce/image/upload/v1729207391/wni4tl9owcsxj8ujoe8w.jpg",
          "status": "One or more items in this order have been removed or deactivated by the supplier, One or more items in this order have been removed or deactivated by the supplier, One or more items in this order have been removed or deactivated by the supplier",
          "subtotal": "13",
          "shipping": "0.00",
          "total": "13.00",
          "errors": [
            "One or more items in this order have been removed or deactivated by the supplier",
            "One or more items in this order have been removed or deactivated by the supplier",
            "One or more items in this order have been removed or deactivated by the supplier"
          ],
          "can_be_paid": false,
          "can_be_canceled": true
        }
      ],
      "total": "13.00"
    },
    {
      "id": 44556,
      "name": "DC-10044556",
      "type": "SAMPLE",
      "status": "unpaid",
      "new_name": "DROPCOM-44556",
      "created_at": "2024-12-03 17:56:40.253505+00:00",
      "shipping_address": {
        "id": 2760,
        "country_code": "US",
        "type": "SHIPPING",
        "first_name": "Guilhermew",
        "last_name": "da Silva",
        "phone": null,
        "city": "Curitiba",
        "zip": "81860-400",
        "province_code": "AL",
        "country": "US",
        "company": "",
        "is_store_address": false,
        "store": 77201,
        "order": null,
        "address": "34 Rua Carlota Volp"
      },
      "suppliers": [
        {
          "id": 3686,
          "name": "Caroline's Treasures, Inc.",
          "quantity": 1,
          "logo": "https://res.cloudinary.com/dropcommerce/image/upload/v1721920433/ixfjnv6qyyxeujutzpac.png",
          "status": "unpaid",
          "subtotal": "12.589999999999999857891452847979962825775146484375",
          "shipping": "5.00",
          "total": "17.58999999999999985789145285",
          "errors": [],
          "can_be_paid": true,
          "can_be_canceled": true
        }
      ],
      "total": "17.58999999999999985789145285"
    },
    {
      "id": 44551,
      "name": "DC-10044551",
      "type": "SAMPLE",
      "status": "unpaid",
      "new_name": "DROPCOM-44551",
      "created_at": "2024-12-02 22:36:52.858042+00:00",
      "shipping_address": {
        "id": 2760,
        "country_code": "US",
        "type": "SHIPPING",
        "first_name": "Guilhermew",
        "last_name": "da Silva",
        "phone": null,
        "city": "Curitiba",
        "zip": "81860-400",
        "province_code": "AL",
        "country": "US",
        "company": "",
        "is_store_address": false,
        "store": 77201,
        "order": null,
        "address": "34 Rua Carlota Volp"
      },
      "suppliers": [
        {
          "id": 161,
          "name": "Northwest Apparel",
          "quantity": 1,
          "logo": "https://res.cloudinary.com/dropcommerce/image/upload/v1729207391/wni4tl9owcsxj8ujoe8w.jpg",
          "status": "One or more items in this order have been removed or deactivated by the supplier",
          "subtotal": "2",
          "shipping": "1.00",
          "total": "3.00",
          "errors": [
            "One or more items in this order have been removed or deactivated by the supplier"
          ],
          "can_be_paid": false,
          "can_be_canceled": true
        },
        {
          "id": 3686,
          "name": "Caroline's Treasures, Inc.",
          "quantity": 1,
          "logo": "https://res.cloudinary.com/dropcommerce/image/upload/v1721920433/ixfjnv6qyyxeujutzpac.png",
          "status": "unpaid",
          "subtotal": "12.589999999999999857891452847979962825775146484375",
          "shipping": "5.00",
          "total": "17.58999999999999985789145285",
          "errors": [],
          "can_be_paid": true,
          "can_be_canceled": true
        }
      ],
      "total": "20.58999999999999985789145285"
    },
    {
      "id": 44548,
      "name": "DC-10044548",
      "type": "SAMPLE",
      "status": "unpaid",
      "new_name": "DROPCOM-44548",
      "created_at": "2024-12-02 19:09:52.168585+00:00",
      "shipping_address": {
        "id": 2760,
        "country_code": "US",
        "type": "SHIPPING",
        "first_name": "Guilhermew",
        "last_name": "da Silva",
        "phone": null,
        "city": "Curitiba",
        "zip": "81860-400",
        "province_code": "AL",
        "country": "US",
        "company": "",
        "is_store_address": false,
        "store": 77201,
        "order": null,
        "address": "34 Rua Carlota Volp"
      },
      "suppliers": [
        {
          "id": 161,
          "name": "Northwest Apparel",
          "quantity": 13,
          "logo": "https://res.cloudinary.com/dropcommerce/image/upload/v1729207391/wni4tl9owcsxj8ujoe8w.jpg",
          "status": "unpaid, One or more items in this order have been removed or deactivated by the supplier, One or more items in this order have been removed or deactivated by the supplier",
          "subtotal": "331",
          "shipping": "3.00",
          "total": "334.00",
          "errors": [
            "One or more items in this order have been removed or deactivated by the supplier",
            "One or more items in this order have been removed or deactivated by the supplier"
          ],
          "can_be_paid": true,
          "can_be_canceled": true
        },
        {
          "id": 3686,
          "name": "Caroline's Treasures, Inc.",
          "quantity": 4,
          "logo": "https://res.cloudinary.com/dropcommerce/image/upload/v1721920433/ixfjnv6qyyxeujutzpac.png",
          "status": "unpaid",
          "subtotal": "115.159999999999996589394868351519107818603515625",
          "shipping": "5.00",
          "total": "120.1599999999999965893948684",
          "errors": [],
          "can_be_paid": true,
          "can_be_canceled": true
        },
        {
          "id": 3778,
          "name": "Olde Copper / Space Enterprises",
          "quantity": 6,
          "logo": "https://res.cloudinary.com/dropcommerce/image/upload/v1725671013/kgwsm0rxcldxweijtbjl.png",
          "status": "unpaid",
          "subtotal": "1326.120000000000118234311230480670928955078125",
          "shipping": "5.00",
          "total": "1331.120000000000118234311230",
          "errors": [],
          "can_be_paid": true,
          "can_be_canceled": true
        }
      ],
      "total": "1785.280000000000114823706098"
    },
    {
      "id": 44508,
      "name": "#1043",
      "type": "DROPSHIP",
      "status": "paid",
      "new_name": "DROPCOM-44508",
      "created_at": "2024-11-26 18:32:42.207872+00:00",
      "shipping_address": {
        "first_name": "Bogus",
        "city": "Surrey",
        "zip": "V4N 5W1",
        "province": "British Columbia",
        "country": "Canada",
        "last_name": "gateway",
        "company": null,
        "name": "Bogus gateway",
        "country_code": "CA",
        "province_code": "BC",
        "address": "8633 159 Street"
      },
      "suppliers": [
        {
          "id": 161,
          "name": "Northwest Apparel",
          "quantity": 2,
          "logo": "https://res.cloudinary.com/dropcommerce/image/upload/v1729207391/wni4tl9owcsxj8ujoe8w.jpg",
          "status": "paid, unpaid",
          "subtotal": "32",
          "shipping": "4.51",
          "total": "36.51",
          "errors": [],
          "can_be_paid": true,
          "can_be_canceled": false
        }
      ],
      "total": "36.51"
    },
    {
      "id": 44507,
      "name": "#1044",
      "type": "DROPSHIP",
      "status": "unpaid",
      "new_name": "DROPCOM-44507",
      "created_at": "2024-11-26 18:32:41.741977+00:00",
      "supplier_orders": [],
      "shipping_address": {
        "first_name": "test",
        "city": "Burnaby",
        "zip": "V5C 3Z6",
        "province": "British Columbia",
        "country": "Canada",
        "last_name": "order",
        "company": null,
        "name": "test order",
        "country_code": "CA",
        "province_code": "BC",
        "address": "4567 Lougheed Highway"
      },
      "suppliers": [
        {
          "id": 3686,
          "name": "Caroline's Treasures, Inc.",
          "quantity": 1,
          "logo": "https://res.cloudinary.com/dropcommerce/image/upload/v1721920433/ixfjnv6qyyxeujutzpac.png",
          "status": "The supplier cannot ship to this address",
          "subtotal": "28.78999999999999914734871708787977695465087890625",
          "shipping": "0.00",
          "total": "28.78999999999999914734871709",
          "errors": ["The supplier cannot ship to this address"],
          "can_be_paid": false,
          "can_be_canceled": true
        }
      ],
      "total": "28.78999999999999914734871709"
    },
    {
      "id": 44485,
      "name": "#1042",
      "type": "DROPSHIP",
      "status": "shipped",
      "new_name": "DROPCOM-44485",
      "created_at": "2024-11-18 23:28:39.356901+00:00",
      "shipping_address": {
        "first_name": "Ivan",
        "city": "Victoria",
        "zip": "V8X 2G2",
        "province": "British Columbia",
        "country": "Canada",
        "last_name": "Figs",
        "company": null,
        "name": "Ivan Figs",
        "country_code": "CA",
        "province_code": "BC",
        "address": "1110 Willow Street"
      },
      "suppliers": [
        {
          "id": 161,
          "name": "Northwest Apparel",
          "quantity": 1,
          "logo": "https://res.cloudinary.com/dropcommerce/image/upload/v1729207391/wni4tl9owcsxj8ujoe8w.jpg",
          "status": "paid",
          "subtotal": "28",
          "shipping": "1.51",
          "total": "29.51",
          "errors": [],
          "can_be_paid": true,
          "can_be_canceled": false
        }
      ],
      "total": "29.51"
    }
  ]
}
